# Blender v2.79 (sub 0) OBJ File: 'millbase.blend'
# www.blender.org
v 0.027024 5.950973 -0.018625
v -0.022728 5.950973 0.019482
v -0.028268 -0.076476 0.006108
v 0.033858 -0.076476 -0.002125
v 0.026264 5.877146 -0.025534
v -0.094967 4.886178 0.050195
v -0.018796 5.886102 0.019527
v -0.094635 4.892895 0.118117
v -0.140028 4.895130 0.095255
v -0.215756 3.904162 0.216487
v -0.170696 3.895206 0.171427
v -0.072106 4.888413 0.095587
v -0.238508 3.904159 0.193736
v -0.314236 2.913191 0.314967
v -0.269176 2.904236 0.269907
v -0.170586 3.897442 0.194068
v -0.336988 2.913189 0.292216
v -0.412717 1.922222 0.413447
v -0.291485 2.913189 0.337719
v -0.269177 2.904233 0.269907
v -0.367656 1.913265 0.368387
v -0.435469 1.922217 0.390696
v -0.389965 1.922217 0.436199
v -0.511197 0.931250 0.511927
v -0.367657 1.913261 0.368387
v -0.466137 0.922294 0.466867
v -0.511197 0.931248 0.511928
v -0.587368 -0.068676 0.542596
v -0.609677 -0.059720 0.610408
v -0.466137 0.922292 0.466867
v -0.541865 -0.068676 0.588099
v -0.027628 5.937329 0.028358
v 0.093160 4.955317 -0.137933
v 0.093493 4.948600 -0.070011
v 0.017432 5.946285 -0.016702
v 0.048101 4.946357 -0.092873
v 0.116023 4.953074 -0.092541
v 0.169332 3.955390 -0.168601
v 0.214392 3.964345 -0.213662
v 0.214392 3.964342 -0.213662
v 0.290121 2.973375 -0.334893
v 0.169332 3.955386 -0.168602
v 0.290453 2.966658 -0.266971
v 0.245061 2.964416 -0.289833
v 0.312983 2.971133 -0.289501
v 0.411352 1.982405 -0.410622
v 0.366292 1.973449 -0.365562
v 0.487081 0.991433 -0.531854
v 0.366292 1.973445 -0.365562
v 0.487413 0.984716 -0.463931
v 0.411352 1.982400 -0.410622
v 0.585561 0.000463 -0.630334
v 0.464772 0.982475 -0.464042
v 0.509832 0.991430 -0.509102
v 0.585893 -0.006254 -0.562411
v -0.048723 5.903812 -0.004101
v 0.072287 4.917323 0.116909
v -0.003662 5.912768 0.040959
v 0.019311 5.908290 -0.027074
v 0.117790 4.917323 0.071406
v 0.049758 4.912841 0.094379
v 0.170768 3.926352 0.215390
v 0.117680 4.919559 0.094047
v 0.216271 3.926352 0.169886
v 0.148238 3.921870 0.192860
v 0.216160 3.928587 0.192528
v 0.269248 2.935380 0.313870
v 0.314751 2.935380 0.268367
v 0.314751 2.935378 0.268367
v 0.390701 1.939933 0.344317
v 0.269248 2.935378 0.313870
v 0.390369 1.946650 0.412239
v 0.489181 0.948961 0.442797
v 0.367728 1.944407 0.412350
v 0.488849 0.955679 0.510719
v 0.413231 1.944407 0.366847
v 0.587329 -0.035292 0.609200
v 0.587661 -0.042010 0.541277
v 0.466208 0.953436 0.510830
v 0.511711 0.953436 0.465327
v -0.017360 5.915138 0.027261
v -0.093200 4.921932 -0.071329
v 0.028143 5.915138 -0.018242
v -0.092867 4.928648 -0.139252
v -0.138371 4.928645 -0.093749
v -0.214321 3.933199 -0.169699
v -0.168818 3.933199 -0.215202
v -0.070448 4.921927 -0.094081
v -0.214321 3.933196 -0.169699
v -0.290160 2.939989 -0.268290
v -0.289828 2.946706 -0.336212
v -0.168818 3.933195 -0.215202
v -0.388308 1.955735 -0.434692
v -0.312801 2.942225 -0.268179
v -0.388640 1.949018 -0.366770
v -0.267298 2.942225 -0.313682
v -0.411281 1.951253 -0.366659
v -0.365778 1.951253 -0.412162
v -0.486788 0.964763 -0.533172
v -0.487120 0.958047 -0.465250
v -0.509761 0.960283 -0.465140
v -0.464258 0.960283 -0.510643
v -0.585268 -0.026207 -0.631652
v -0.585600 -0.032924 -0.563730
v 0.501550 0.883368 0.509847
v -0.499157 0.867281 0.461583
v 0.501550 0.835105 0.461583
v -0.499157 0.867281 0.525934
v 0.525739 0.835105 0.499352
v 0.461388 0.867280 -0.501355
v 0.477475 0.883368 0.499352
v 0.525739 0.867280 -0.501355
v 0.499156 0.835105 -0.525544
v -0.501550 0.867280 -0.525544
v 0.499156 0.867281 -0.461193
v -0.501550 0.867280 -0.461193
v 0.499156 0.899456 -0.525544
v -0.525739 0.835105 -0.498961
v -0.525739 0.867280 0.501745
v -0.525739 0.899456 -0.498961
v -0.461388 0.867281 -0.498962
v -0.461388 0.867280 0.501745
v -0.396941 1.836826 0.431488
v 0.399334 1.869001 0.431489
v -0.396941 1.885090 0.383225
v 0.399334 1.869002 0.367137
v 0.432692 1.836826 0.397136
v 0.384429 1.885090 0.397136
v 0.432692 1.869002 -0.399139
v 0.368341 1.869001 -0.399139
v 0.396941 1.869002 -0.432383
v 0.396941 1.869002 -0.368032
v -0.399334 1.836826 -0.368032
v -0.399334 1.869002 -0.432383
v -0.399334 1.901177 -0.368032
v -0.363399 1.869002 -0.396746
v -0.363399 1.836826 0.399529
v -0.427750 1.869002 -0.396746
v -0.427750 1.869001 0.399529
v -0.363399 1.901177 0.399529
v 0.330604 2.831897 0.299590
v 0.266252 2.864072 -0.301593
v 0.282340 2.880160 0.299590
v 0.330603 2.864072 -0.301593
v 0.299395 2.864072 -0.264645
v -0.301789 2.831896 -0.264644
v 0.299395 2.864072 -0.328996
v -0.301789 2.880160 -0.312908
v -0.327181 2.831897 -0.299200
v -0.327181 2.864072 0.301984
v -0.278918 2.880160 -0.299200
v -0.262830 2.864072 0.301984
v -0.299395 2.831897 0.331658
v 0.301788 2.864072 0.331658
v -0.299395 2.880160 0.283394
v 0.301788 2.864072 0.267307
v 0.199041 3.817437 -0.232626
v -0.201435 3.849613 -0.232626
v 0.199041 3.865700 -0.184363
v -0.201435 3.849612 -0.168275
v -0.231310 3.817437 -0.198846
v -0.183047 3.865700 -0.198846
v -0.231310 3.849613 0.201630
v -0.166959 3.849612 0.201630
v -0.199042 3.817437 0.230206
v 0.201435 3.849613 0.230206
v -0.199042 3.865700 0.181942
v 0.201435 3.849612 0.165855
v 0.236183 3.817437 0.199237
v 0.236183 3.849612 -0.201240
v 0.187919 3.865700 0.199237
v 0.171832 3.849613 -0.201240
v -0.430462 0.879759 0.523264
v -0.466638 0.907437 0.472432
v 0.392218 1.830197 0.363628
v 0.392657 1.836221 0.427695
v 0.456188 0.895199 0.457479
v 0.364328 1.808733 -0.413436
v 0.520255 0.901223 0.457041
v 0.409597 1.845446 -0.377917
v 0.431988 0.879759 -0.519429
v -0.390692 1.830197 -0.359793
v 0.468164 0.907437 -0.468597
v -0.391131 1.836221 -0.423860
v -0.520583 0.879759 -0.429307
v -0.425014 1.836221 0.393811
v -0.360947 1.830197 0.393373
v -0.469751 0.907437 -0.465484
vt 0.849497 0.999500
vt 0.346303 0.999500
vt 0.775503 0.000500
vt 0.275895 0.000500
vt -0.000000 0.999500
vt 1.000000 0.000500
vt 0.689159 0.750280
vt 0.689159 0.970000
vt 0.030000 0.970000
vt 0.030000 0.750280
vt 0.030000 0.183804
vt 0.689159 0.030000
vt 0.689159 0.249720
vt 0.030000 0.379953
vt 0.689159 0.270093
vt 0.689159 0.489813
vt 0.689159 0.750280
vt 0.689159 0.970000
vt 0.030000 0.970000
vt 0.030000 0.750280
vt 0.689159 0.095916
vt 0.030000 0.249720
vt 0.030000 0.030000
vt 0.030000 0.620047
vt 0.689159 0.510187
vt 0.689159 0.729906
vt 0.689159 0.750280
vt 0.689159 0.970000
vt 0.030000 0.970000
vt 0.030000 0.750280
vt 0.689159 0.095916
vt 0.030000 0.249720
vt 0.030000 0.030000
vt 0.030000 0.620047
vt 0.689159 0.510187
vt 0.689159 0.729906
vt 0.689159 0.750280
vt 0.689159 0.970000
vt 0.030000 0.970000
vt 0.030000 0.750280
vt 0.689159 0.249720
vt 0.030000 0.249720
vt 0.030000 0.030000
vt 0.689159 0.030000
vt 0.030000 0.620047
vt 0.689159 0.510187
vt 0.689159 0.729906
vt 0.750280 0.139860
vt 0.970000 0.030000
vt 0.970000 0.249720
vt 0.689159 0.750280
vt 0.689159 0.970000
vt 0.030000 0.970000
vt 0.030000 0.750280
vt 0.689159 0.249720
vt 0.030000 0.249720
vt 0.030000 0.030000
vt 0.689159 0.030000
vt 0.030000 0.620047
vt 0.689159 0.510187
vt 0.689159 0.729906
vt 0.750280 0.139860
vt 0.970000 0.030000
vt 0.970000 0.249720
vt 0.689159 0.750280
vt 0.689159 0.970000
vt 0.030000 0.970000
vt 0.030000 0.750280
vt 0.689159 0.249720
vt 0.030000 0.249720
vt 0.030000 0.030000
vt 0.689159 0.030000
vt 0.750280 0.379953
vt 0.970000 0.270093
vt 0.970000 0.489813
vt 0.030000 0.379953
vt 0.689159 0.270093
vt 0.689159 0.489813
vt 0.689159 0.750280
vt 0.689159 0.970000
vt 0.030000 0.970000
vt 0.030000 0.750280
vt 0.030000 0.183804
vt 0.689159 0.030000
vt 0.689159 0.249720
vt 0.030000 0.379953
vt 0.689159 0.270093
vt 0.689159 0.489813
vt 0.689159 0.750280
vt 0.689159 0.970000
vt 0.030000 0.970000
vt 0.030000 0.750280
vt 0.689159 0.095916
vt 0.030000 0.249720
vt 0.030000 0.030000
vt 0.030000 0.620047
vt 0.689159 0.510187
vt 0.689159 0.729906
vt 0.689159 0.750280
vt 0.689159 0.970000
vt 0.030000 0.970000
vt 0.030000 0.750280
vt 0.030000 0.183804
vt 0.689159 0.030000
vt 0.689159 0.249720
vt 0.030000 0.379953
vt 0.689159 0.270093
vt 0.689159 0.489813
vt 0.689159 0.750280
vt 0.689159 0.970000
vt 0.030000 0.970000
vt 0.030000 0.750280
vt 0.689159 0.095916
vt 0.030000 0.249720
vt 0.030000 0.030000
vt 0.030000 0.620047
vt 0.689159 0.510187
vt 0.689159 0.729906
vt 0.689159 0.750280
vt 0.689159 0.970000
vt 0.030000 0.970000
vt 0.030000 0.750280
vt 0.030000 0.183804
vt 0.689159 0.030000
vt 0.689159 0.249720
vt 0.030000 0.379953
vt 0.689159 0.270093
vt 0.689159 0.489813
vt 0.689159 0.750280
vt 0.689159 0.970000
vt 0.030000 0.970000
vt 0.030000 0.750280
vt 0.030000 0.183804
vt 0.689159 0.030000
vt 0.689159 0.249720
vt 0.030000 0.379953
vt 0.689159 0.270093
vt 0.689159 0.489813
vt 0.689159 0.750280
vt 0.689159 0.970000
vt 0.030000 0.970000
vt 0.030000 0.750280
vt 0.689159 0.249720
vt 0.030000 0.249720
vt 0.030000 0.030000
vt 0.689159 0.030000
vt 0.030000 0.620047
vt 0.689159 0.510187
vt 0.689159 0.729906
vt 0.750280 0.139860
vt 0.970000 0.030000
vt 0.970000 0.249720
vt 0.689159 0.750280
vt 0.689159 0.970000
vt 0.030000 0.970000
vt 0.030000 0.750280
vt 0.689159 0.095916
vt 0.030000 0.249720
vt 0.030000 0.030000
vt 0.030000 0.620047
vt 0.689159 0.510187
vt 0.689159 0.729906
vt 0.689159 0.750280
vt 0.689159 0.970000
vt 0.030000 0.970000
vt 0.030000 0.750280
vt 0.689159 0.095916
vt 0.030000 0.249720
vt 0.030000 0.030000
vt 0.030000 0.620047
vt 0.689159 0.510187
vt 0.689159 0.729906
vt 0.689159 0.750280
vt 0.689159 0.970000
vt 0.030000 0.970000
vt 0.030000 0.750280
vt 0.030000 0.183804
vt 0.689159 0.030000
vt 0.689159 0.249720
vt 0.030000 0.379953
vt 0.689159 0.270093
vt 0.689159 0.489813
vt 0.689159 0.750280
vt 0.689159 0.970000
vt 0.030000 0.970000
vt 0.030000 0.750280
vt 0.030000 0.183804
vt 0.689159 0.030000
vt 0.689159 0.249720
vt 0.030000 0.379953
vt 0.689159 0.270093
vt 0.689159 0.489813
vt 0.689159 0.750280
vt 0.689159 0.970000
vt 0.030000 0.970000
vt 0.030000 0.750280
vt 0.030000 0.183804
vt 0.689159 0.030000
vt 0.689159 0.249720
vt 0.030000 0.379953
vt 0.689159 0.270093
vt 0.689159 0.489813
vt 0.689159 0.750280
vt 0.689159 0.970000
vt 0.030000 0.970000
vt 0.030000 0.750280
vt 0.030000 0.183804
vt 0.689159 0.030000
vt 0.689159 0.249720
vt 0.030000 0.379953
vt 0.689159 0.270093
vt 0.689159 0.489813
vt 0.689159 0.750280
vt 0.689159 0.970000
vt 0.030000 0.970000
vt 0.030000 0.750280
vt 0.689159 0.095916
vt 0.030000 0.249720
vt 0.030000 0.030000
vt 0.030000 0.620047
vt 0.689159 0.510187
vt 0.689159 0.729906
vt 0.689159 0.750280
vt 0.689159 0.970000
vt 0.030000 0.970000
vt 0.030000 0.750280
vt 0.030000 0.183804
vt 0.689159 0.030000
vt 0.689159 0.249720
vt 0.030000 0.379953
vt 0.689159 0.270093
vt 0.689159 0.489813
vt 0.689159 0.750280
vt 0.689159 0.970000
vt 0.030000 0.970000
vt 0.030000 0.750280
vt 0.030000 0.183804
vt 0.689159 0.030000
vt 0.689159 0.249720
vt 0.030000 0.379953
vt 0.689159 0.270093
vt 0.689159 0.489813
vt 0.689159 0.750280
vt 0.689159 0.970000
vt 0.030000 0.970000
vt 0.030000 0.750280
vt 0.030000 0.183804
vt 0.689159 0.030000
vt 0.689159 0.249720
vt 0.030000 0.379953
vt 0.689159 0.270093
vt 0.689159 0.489813
vt 0.689159 0.750280
vt 0.689159 0.970000
vt 0.030000 0.970000
vt 0.030000 0.750280
vt 0.030000 0.183804
vt 0.689159 0.030000
vt 0.689159 0.249720
vt 0.030000 0.379953
vt 0.689159 0.270093
vt 0.689159 0.489813
vt 0.689159 0.750280
vt 0.689159 0.970000
vt 0.030000 0.970000
vt 0.030000 0.750280
vt 0.030000 0.183804
vt 0.689159 0.030000
vt 0.689159 0.249720
vt 0.030000 0.379953
vt 0.689159 0.270093
vt 0.689159 0.489813
vt 0.689159 0.750280
vt 0.689159 0.970000
vt 0.030000 0.970000
vt 0.030000 0.750280
vt 0.689159 0.095916
vt 0.030000 0.249720
vt 0.030000 0.030000
vt 0.030000 0.620047
vt 0.689159 0.510187
vt 0.689159 0.729906
vt 0.689159 0.750280
vt 0.689159 0.970000
vt 0.030000 0.970000
vt 0.030000 0.750280
vt 0.689159 0.249720
vt 0.030000 0.249720
vt 0.030000 0.030000
vt 0.689159 0.030000
vt 0.030000 0.620047
vt 0.689159 0.510187
vt 0.689159 0.729906
vt 0.750280 0.139860
vt 0.970000 0.030000
vt 0.970000 0.249720
vt 0.689159 0.750280
vt 0.689159 0.970000
vt 0.030000 0.970000
vt 0.030000 0.750280
vt 0.689159 0.249720
vt 0.030000 0.249720
vt 0.030000 0.030000
vt 0.689159 0.030000
vt 0.030000 0.620047
vt 0.689159 0.510187
vt 0.689159 0.729906
vt 0.750280 0.139860
vt 0.970000 0.030000
vt 0.970000 0.249720
vt 0.689159 0.750280
vt 0.689159 0.970000
vt 0.030000 0.970000
vt 0.030000 0.750280
vt 0.689159 0.095916
vt 0.030000 0.249720
vt 0.030000 0.030000
vt 0.030000 0.620046
vt 0.689159 0.510187
vt 0.689159 0.729906
vt 0.689159 0.750280
vt 0.689159 0.970000
vt 0.030000 0.970000
vt 0.030000 0.750280
vt 0.689159 0.095916
vt 0.030000 0.249720
vt 0.030000 0.030000
vt 0.030000 0.620046
vt 0.689159 0.510187
vt 0.689159 0.729906
vt 0.689159 0.750280
vt 0.689159 0.970000
vt 0.030000 0.970000
vt 0.030000 0.750280
vt 0.689159 0.249720
vt 0.030000 0.249720
vt 0.030000 0.030000
vt 0.689159 0.030000
vt 0.750280 0.379953
vt 0.970000 0.270093
vt 0.970000 0.489813
vt 0.030000 0.379953
vt 0.689159 0.270093
vt 0.689159 0.489813
vt 0.689159 0.750280
vt 0.689159 0.970000
vt 0.030000 0.970000
vt 0.030000 0.750280
vt 0.689159 0.249720
vt 0.030000 0.249720
vt 0.030000 0.030000
vt 0.689159 0.030000
vt 0.750280 0.379953
vt 0.970000 0.270093
vt 0.970000 0.489813
vt 0.030000 0.379953
vt 0.689159 0.270093
vt 0.689159 0.489813
vt 0.689159 0.750280
vt 0.689159 0.970000
vt 0.030000 0.970000
vt 0.030000 0.750280
vt 0.689159 0.095916
vt 0.030000 0.249720
vt 0.030000 0.030000
vt 0.030000 0.620047
vt 0.689159 0.510187
vt 0.689159 0.729906
vt 0.689159 0.750280
vt 0.689159 0.970000
vt 0.030000 0.970000
vt 0.030000 0.750280
vt 0.030000 0.183804
vt 0.689159 0.030000
vt 0.689159 0.249720
vt 0.030000 0.379953
vt 0.689159 0.270093
vt 0.689159 0.489813
vt 0.689159 0.750280
vt 0.689159 0.970000
vt 0.030000 0.970000
vt 0.030000 0.750280
vt 0.689159 0.095916
vt 0.030000 0.249720
vt 0.030000 0.030000
vt 0.030000 0.620047
vt 0.689159 0.510187
vt 0.689159 0.729906
vt 0.689159 0.750280
vt 0.689159 0.970000
vt 0.030000 0.970000
vt 0.030000 0.750280
vt 0.689159 0.095916
vt 0.030000 0.249720
vt 0.030000 0.030000
vt 0.030000 0.620046
vt 0.689159 0.510187
vt 0.689159 0.729906
vt 0.689159 0.750280
vt 0.689159 0.970000
vt 0.030000 0.970000
vt 0.030000 0.750280
vt 0.689159 0.095916
vt 0.030000 0.249720
vt 0.030000 0.030000
vt 0.030000 0.620046
vt 0.689159 0.510187
vt 0.689159 0.729906
vt 0.689159 0.750280
vt 0.689159 0.970000
vt 0.030000 0.970000
vt 0.030000 0.750280
vt 0.689159 0.095916
vt 0.030000 0.249720
vt 0.030000 0.030000
vt 0.030000 0.620046
vt 0.689159 0.510187
vt 0.689159 0.729906
vt 0.689159 0.750280
vt 0.689159 0.970000
vt 0.030000 0.970000
vt 0.030000 0.750280
vt 0.689159 0.095916
vt 0.030000 0.249720
vt 0.030000 0.030000
vt 0.030000 0.620046
vt 0.689159 0.510187
vt 0.689159 0.729906
vt 0.689159 0.750280
vt 0.689159 0.970000
vt 0.030000 0.970000
vt 0.030000 0.750280
vt 0.689159 0.095916
vt 0.030000 0.249720
vt 0.030000 0.030000
vt 0.030000 0.620046
vt 0.689159 0.510187
vt 0.689159 0.729906
vt 0.689159 0.750280
vt 0.689159 0.970000
vt 0.030000 0.970000
vt 0.030000 0.750280
vt 0.689159 0.095916
vt 0.030000 0.249720
vt 0.030000 0.030000
vt 0.030000 0.620046
vt 0.689159 0.510187
vt 0.689159 0.729906
vt 0.689159 0.750280
vt 0.689159 0.970000
vt 0.030000 0.970000
vt 0.030000 0.750280
vt 0.030000 0.183804
vt 0.689159 0.030000
vt 0.689159 0.249720
vt 0.030000 0.379953
vt 0.689159 0.270093
vt 0.689159 0.489813
vt 0.689159 0.750280
vt 0.689159 0.970000
vt 0.030000 0.970000
vt 0.030000 0.750280
vt 0.689159 0.095916
vt 0.030000 0.249720
vt 0.030000 0.030000
vt 0.030000 0.620047
vt 0.689159 0.510187
vt 0.689159 0.729906
vt 0.689159 0.750280
vt 0.689159 0.970000
vt 0.030000 0.970000
vt 0.030000 0.750280
vt 0.689159 0.095916
vt 0.030000 0.249720
vt 0.030000 0.030000
vt 0.030000 0.620047
vt 0.689159 0.510187
vt 0.689159 0.729906
vn 0.6081 0.0029 0.7939
vn 0.1314 -0.0023 0.9913
vn -0.6081 0.0023 -0.7939
vn -0.1314 -0.0029 -0.9913
vn -0.7036 0.0318 -0.7099
vn -0.9971 0.0759 -0.0026
vn 0.7086 0.0159 0.7054
vn 0.9926 -0.1209 0.0071
vn -0.0026 -0.0759 -0.9971
vn -0.7099 -0.0318 -0.7036
vn 0.7054 -0.0159 0.7086
vn 0.0071 0.1209 0.9926
vn -0.3193 -0.0622 -0.9456
vn 0.7036 -0.0318 0.7099
vn 0.9456 -0.0622 0.3193
vn -0.7002 0.1392 0.7002
vn 0.0984 0.9903 -0.0984
vn -0.9456 0.0622 -0.3193
vn 0.3193 0.0622 0.9456
vn 0.7099 0.0318 0.7036
vn -0.0984 -0.9903 0.0984
vn 0.7002 -0.1392 -0.7002
vn -0.7099 0.0318 -0.7036
vn -0.9926 -0.1209 -0.0071
vn 0.7054 0.0159 0.7086
vn 0.9971 0.0759 0.0026
vn -0.0071 0.1209 -0.9926
vn -0.7036 -0.0318 -0.7099
vn 0.7086 -0.0159 0.7054
vn 0.0026 -0.0759 0.9971
vn -0.3101 -0.1245 -0.9425
vn -0.6967 -0.1709 -0.6967
vn 0.7030 0.1073 0.7030
vn 0.9425 0.1245 0.3101
vn -0.7071 0.0000 0.7071
vn -0.0984 0.9903 -0.0984
vn 0.0026 -0.0759 -0.9971
vn 0.7017 0.1232 0.7017
vn -0.0071 0.1209 0.9926
vn -0.7030 -0.1073 -0.7030
vn -0.9926 -0.1209 0.0071
vn 0.6986 0.1551 0.6986
vn 0.9971 0.0759 -0.0026
vn -0.6967 0.1709 -0.6967
vn -0.9971 0.0759 0.0026
vn 0.7017 -0.1232 0.7017
vn 0.9926 -0.1209 -0.0071
vn 0.0071 0.1209 -0.9926
vn -0.7030 0.1073 -0.7030
vn 0.6986 -0.1551 0.6986
vn -0.0026 -0.0759 0.9971
vn -0.0321 -0.9995 0.0000
vn 0.0227 -0.7069 0.7069
vn -0.0161 0.9999 -0.0000
vn 0.0227 0.7069 -0.7069
vn -0.7069 -0.7069 0.0227
vn -0.0000 -0.9995 -0.0321
vn 0.0000 0.9999 -0.0161
vn 0.7069 0.7069 0.0227
vn 0.0000 -0.8944 0.4472
vn -0.0321 0.9995 -0.0000
vn -0.0000 0.8944 0.4472
vn 0.0000 0.0000 -1.0000
vn 1.0000 0.0000 -0.0000
vn 0.4472 -0.8944 -0.0000
vn 0.0000 -0.9995 0.0321
vn 0.0000 0.9995 0.0321
vn 0.4472 0.8944 0.0000
vn -1.0000 0.0000 0.0000
vn -0.0286 -0.7068 -0.7068
vn 0.0404 -0.9992 0.0000
vn 0.0202 0.9998 0.0000
vn -0.0286 0.7068 0.7068
vn -0.7068 -0.7068 0.0286
vn 0.0000 -0.9992 -0.0404
vn -0.0000 0.9998 -0.0202
vn 0.7068 0.7068 0.0286
vn 0.0000 -0.8944 -0.4472
vn -0.0000 0.8944 -0.4472
vn 0.0404 0.9992 0.0000
vn 0.0000 -0.0000 1.0000
vn -0.4472 -0.8944 -0.0000
vn -0.4472 0.8944 0.0000
vn 0.0000 0.9992 -0.0404
vn -0.7066 -0.7066 0.0378
vn -0.0000 -0.9986 -0.0534
vn -0.0000 0.9996 -0.0268
vn 0.7066 0.7066 0.0378
vn 0.0534 -0.9986 -0.0000
vn -0.0378 -0.7066 -0.7066
vn 0.0268 0.9996 -0.0000
vn -0.0378 0.7066 0.7066
vn 0.7066 -0.7066 -0.0378
vn 0.0000 -0.9986 0.0534
vn 0.0000 0.9996 0.0268
vn -0.7066 0.7066 -0.0378
vn 0.0567 -0.7060 0.7060
vn -0.0801 -0.9968 0.0000
vn -0.0401 0.9992 -0.0000
vn 0.0567 0.7060 -0.7060
vn 0.7060 -0.7060 -0.0567
vn -0.0000 -0.9968 0.0801
vn 0.0000 0.9992 0.0401
vn -0.7060 0.7060 -0.0567
vn -0.0567 -0.7060 -0.7060
vn 0.0801 -0.9968 0.0000
vn 0.0401 0.9992 -0.0000
vn -0.0567 0.7060 0.7060
vn -0.7060 -0.7060 0.0567
vn -0.0000 -0.9968 -0.0801
vn 0.0000 0.9992 -0.0401
vn 0.7060 0.7060 0.0567
vn 0.5083 -0.5511 -0.6618
vn 0.7595 -0.6481 0.0557
vn -0.7342 0.6764 -0.0586
vn -0.5323 0.5245 0.6645
vn 0.0595 -0.6857 -0.7255
vn 0.7433 -0.3922 -0.5420
vn -0.0567 0.6576 0.7512
vn -0.7460 0.4187 0.5179
vn -0.5083 -0.5511 0.6618
vn -0.7595 -0.6481 -0.0557
vn 0.7342 0.6764 0.0586
vn 0.5323 0.5245 -0.6645
vn 0.6618 -0.5511 0.5083
vn -0.0557 -0.6481 0.7595
vn 0.0586 0.6764 -0.7342
vn -0.6645 0.5245 -0.5323
s off
f 1/1/1 2/2/1 4/3/1
f 2/2/2 3/4/2 4/3/2
f 2/2/3 1/5/3 3/4/3
f 1/1/4 4/3/4 3/6/4
f 7/7/5 5/8/5 6/9/5
f 6/9/6 8/10/6 7/7/6
f 8/11/7 5/12/7 7/13/7
f 5/14/8 8/15/8 6/16/8
f 9/17/9 12/18/9 11/19/9
f 11/19/10 10/20/10 9/17/10
f 12/21/11 10/22/11 11/23/11
f 10/24/12 12/25/12 9/26/12
f 13/27/9 16/28/9 15/29/9
f 15/29/10 14/30/10 13/27/10
f 16/31/11 14/32/11 15/33/11
f 14/34/12 16/35/12 13/36/12
f 17/37/13 20/38/13 21/39/13
f 21/39/10 18/40/10 17/37/10
f 19/41/14 18/42/14 21/43/14
f 21/43/15 20/44/15 19/41/15
f 18/45/16 19/46/16 17/47/16
f 20/48/17 17/49/17 19/50/17
f 22/51/13 25/52/13 26/53/13
f 26/53/10 24/54/10 22/51/10
f 23/55/14 24/56/14 26/57/14
f 26/57/15 25/58/15 23/55/15
f 24/59/16 23/60/16 22/61/16
f 25/62/17 22/63/17 23/64/17
f 27/65/5 30/66/5 28/67/5
f 28/67/18 29/68/18 27/65/18
f 27/69/19 29/70/19 31/71/19
f 31/71/20 30/72/20 27/69/20
f 29/73/21 28/74/21 31/75/21
f 30/76/22 31/77/22 28/78/22
f 32/79/23 35/80/23 33/81/23
f 33/81/24 34/82/24 32/79/24
f 34/83/25 35/84/25 32/85/25
f 35/86/26 34/87/26 33/88/26
f 36/89/27 37/90/27 39/91/27
f 39/91/28 38/92/28 36/89/28
f 37/93/29 38/94/29 39/95/29
f 38/96/30 37/97/30 36/98/30
f 42/99/23 40/100/23 41/101/23
f 41/101/24 43/102/24 42/99/24
f 43/103/25 40/104/25 42/105/25
f 40/106/26 43/107/26 41/108/26
f 44/109/27 45/110/27 46/111/27
f 46/111/28 47/112/28 44/109/28
f 45/113/29 47/114/29 46/115/29
f 47/116/30 45/117/30 44/118/30
f 49/119/23 51/120/23 48/121/23
f 48/121/24 50/122/24 49/119/24
f 50/123/25 51/124/25 49/125/25
f 51/126/26 50/127/26 48/128/26
f 53/129/23 54/130/23 52/131/23
f 52/131/24 55/132/24 53/129/24
f 55/133/25 54/134/25 53/135/25
f 54/136/26 55/137/26 52/138/26
f 56/139/31 59/140/31 60/141/31
f 60/141/32 57/142/32 56/139/32
f 58/143/33 57/144/33 60/145/33
f 60/145/34 59/146/34 58/143/34
f 57/147/35 58/148/35 56/149/35
f 59/150/36 56/151/36 58/152/36
f 61/153/37 63/154/37 64/155/37
f 64/155/32 62/156/32 61/153/32
f 63/157/38 62/158/38 64/159/38
f 62/160/39 63/161/39 61/162/39
f 65/163/37 66/164/37 68/165/37
f 68/165/32 67/166/32 65/163/32
f 66/167/38 67/168/38 68/169/38
f 67/170/39 66/171/39 65/172/39
f 71/173/40 69/174/40 70/175/40
f 70/175/41 72/176/41 71/173/41
f 72/177/42 69/178/42 71/179/42
f 69/180/43 72/181/43 70/182/43
f 74/183/40 76/184/40 73/185/40
f 73/185/41 75/186/41 74/183/41
f 75/187/42 76/188/42 74/189/42
f 76/190/43 75/191/43 73/192/43
f 79/193/40 80/194/40 78/195/40
f 78/195/41 77/196/41 79/193/41
f 77/197/42 80/198/42 79/199/42
f 80/200/43 77/201/43 78/202/43
f 81/203/44 83/204/44 84/205/44
f 84/205/45 82/206/45 81/203/45
f 82/207/46 83/208/46 81/209/46
f 83/210/47 82/211/47 84/212/47
f 85/213/48 88/214/48 87/215/48
f 87/215/49 86/216/49 85/213/49
f 88/217/50 86/218/50 87/219/50
f 86/220/51 88/221/51 85/222/51
f 89/223/44 92/224/44 91/225/44
f 91/225/45 90/226/45 89/223/45
f 90/227/46 92/228/46 89/229/46
f 92/230/47 90/231/47 91/232/47
f 94/233/44 96/234/44 93/235/44
f 93/235/45 95/236/45 94/233/45
f 95/237/46 96/238/46 94/239/46
f 96/240/47 95/241/47 93/242/47
f 97/243/44 98/244/44 99/245/44
f 99/245/45 100/246/45 97/243/45
f 100/247/46 98/248/46 97/249/46
f 98/250/47 100/251/47 99/252/47
f 101/253/44 102/254/44 103/255/44
f 103/255/45 104/256/45 101/253/45
f 104/257/46 102/258/46 101/259/46
f 102/260/47 104/261/47 103/262/47
f 108/263/52 106/264/52 107/265/52
f 107/265/53 105/266/53 108/263/53
f 105/267/54 106/268/54 108/269/54
f 106/270/55 105/271/55 107/272/55
f 109/273/56 111/274/56 110/275/56
f 110/275/57 112/276/57 109/273/57
f 111/277/58 112/278/58 110/279/58
f 112/280/59 111/281/59 109/282/59
f 113/283/60 115/284/60 116/285/60
f 116/285/52 114/286/52 113/283/52
f 117/287/61 114/288/61 116/289/61
f 116/289/62 115/290/62 117/287/62
f 114/291/63 117/292/63 113/293/63
f 115/294/64 113/295/64 117/296/64
f 118/297/65 121/298/65 122/299/65
f 122/299/66 119/300/66 118/297/66
f 120/301/67 119/302/67 122/303/67
f 122/303/68 121/304/68 120/301/68
f 119/305/69 120/306/69 118/307/69
f 121/308/63 118/309/63 120/310/63
f 123/311/70 125/312/70 126/313/70
f 126/313/71 124/314/71 123/311/71
f 125/315/72 124/316/72 126/317/72
f 124/318/73 125/319/73 123/320/73
f 127/321/74 128/322/74 130/323/74
f 130/323/75 129/324/75 127/321/75
f 128/325/76 129/326/76 130/327/76
f 129/328/77 128/329/77 127/330/77
f 131/331/71 132/332/71 133/333/71
f 133/333/78 134/334/78 131/331/78
f 131/335/79 134/336/79 135/337/79
f 135/337/80 132/338/80 131/335/80
f 134/339/69 133/340/69 135/341/69
f 132/342/81 135/343/81 133/344/81
f 138/345/75 136/346/75 137/347/75
f 137/347/82 139/348/82 138/345/82
f 138/349/83 139/350/83 140/351/83
f 140/351/84 136/352/84 138/349/84
f 139/353/81 137/354/81 140/355/81
f 136/356/64 140/357/64 137/358/64
f 141/359/85 143/360/85 142/361/85
f 142/361/86 144/362/86 141/359/86
f 143/363/87 144/364/87 142/365/87
f 144/366/88 143/367/88 141/368/88
f 147/369/89 145/370/89 146/371/89
f 146/371/90 148/372/90 147/369/90
f 148/373/91 145/374/91 147/375/91
f 145/376/92 148/377/92 146/378/92
f 149/379/93 151/380/93 152/381/93
f 152/381/94 150/382/94 149/379/94
f 151/383/95 150/384/95 152/385/95
f 150/386/96 151/387/96 149/388/96
f 153/389/90 155/390/90 156/391/90
f 156/391/89 154/392/89 153/389/89
f 155/393/91 154/394/91 156/395/91
f 154/396/92 155/397/92 153/398/92
f 157/399/97 159/400/97 160/401/97
f 160/401/98 158/402/98 157/399/98
f 159/403/99 158/404/99 160/405/99
f 158/406/100 159/407/100 157/408/100
f 161/409/101 162/410/101 164/411/101
f 164/411/102 163/412/102 161/409/102
f 162/413/103 163/414/103 164/415/103
f 163/416/104 162/417/104 161/418/104
f 165/419/105 167/420/105 168/421/105
f 168/421/106 166/422/106 165/419/106
f 167/423/107 166/424/107 168/425/107
f 166/426/108 167/427/108 165/428/108
f 169/429/109 171/430/109 172/431/109
f 172/431/110 170/432/110 169/429/110
f 171/433/111 170/434/111 172/435/111
f 170/436/112 171/437/112 169/438/112
f 173/439/113 174/440/113 175/441/113
f 175/441/114 176/442/114 173/439/114
f 174/443/115 176/444/115 175/445/115
f 176/446/116 174/447/116 173/448/116
f 179/449/117 177/450/117 178/451/117
f 178/451/118 180/452/118 179/449/118
f 180/453/119 177/454/119 179/455/119
f 177/456/120 180/457/120 178/458/120
f 181/459/121 183/460/121 182/461/121
f 182/461/122 184/462/122 181/459/122
f 183/463/123 184/464/123 182/465/123
f 184/466/124 183/467/124 181/468/124
f 185/469/125 188/470/125 187/471/125
f 187/471/126 186/472/126 185/469/126
f 188/473/127 186/474/127 187/475/127
f 186/476/128 188/477/128 185/478/128
